{
  "type": "service_account",
  "project_id": "appdarlan",
  "private_key_id": "e20e498ed27122209a561907410514336ddce5a3",
  "private_key": "-----BEGIN PRIVATE KEY-----\nMIIEvQIBADANBgkqhkiG9w0BAQEFAASCBKcwggSjAgEAAoIBAQCs7xzMb0kAuc4Q\nsb0E44fLeeRNPOg0HTZ9g6kPqEuES6/oHDPQSfkLNyKSizRV/Eb/wifmu1OeH9aj\nxsACH5xmnEUBVBeyV9y5mgnC+K31O5ZPQw+LNeLi3ICAEcVu00fh4tyEatrOyt6E\nEBsmZCDZhRTnqBPiXfUHK2jEF8GCcjhr2Rzem1AMcsfNH4uf0erQgJ0ZBhyWr9VP\nQW758hMbO5MuVtrZd2fCo5atgxHGgk7U6cR6YR0IsW4hG3C+AU18R5zYoJC1Lypr\nPZorxUpMEe9CZWt0AcvB7FSANRyXH6zP5whx+9pkwrt5F0eFP/yfqTFWrxbEL6sr\nnfs7B71PAgMBAAECggEAAQLGvtvSQ6MXl7LLWin2o6x+PWkD8qwyxYDw+Ult2U4C\n+zeKOoj4e6WmsgeDW9RyKsVPK+m4MDe6WDfQKqUsVVpnMWXEmgQqN+oBIXfC+6+b\nexnwONXFC1AOG7GJRyXONEzzA9iKigUtcoAQoMdcg4Zj/4pUrPAP/Crn3xxEONET\n2+IMXEy2ckK07LNs7JkhKpGXpPOXf5o9bH96C6Jz/AECPCU55B5zjV3cp5Kvrc5Y\nDXnh5FU9rZqn+w+rtWmujFqA8yikFYuRtEagGtKcnAqHlFPUJuv1nuyESNMWsQEY\n56TQmRavdXAeEMRwPkG8l93dIq1DKyQ5Jxw2zw4qsQKBgQDZkevurFU1smQBhacW\nPk/Xn7m+Qco3GZbD5tfEIIEGFWr1uYiQ3gowj58iE0moO6SwobzwQ0mHYoNfBSUg\ndXMq9KBpSmntvvUGYq3o6cfwhWR6ldyYAevbJnBbYM110N3s8byU6b18S2QbInt0\nsmr3aw6T5zMGpxdbeQDIr0JrJQKBgQDLeteGWwZ2WwVipuOPMVInQnCA9Mly3l62\nbY3utAv7YOb+8Cm6CcqPInesB9zu1JzM4cxoLGbB8tM8ToOB8z5wRyhoTZxk0Ky3\nlsWfKwGq3kNK4q4lKK68lCG584BkyfAjJJNC+dJt1pwKj6un/L9klL7cy1TBtfly\nWeMKSby2YwKBgEZQPmt4DmG4MVG8m+84XB1XZXPzVyLPhkXxiLG9v3Tz3wli2JvY\n5nojME6W5SsVe3gKDUGovU6fq809oG4JBxtOy7i7b9iB6jYSFho7034L3hkv7YbC\nuDKvDYi6lCwLQG2fAk8t6ysMQmHylutz7dXgJ2ntQjRYM9hAFtzEpzZxAoGBAJOC\nbDf0SQ0IEzFfNtyZrqrTWWfDDT7+wb6SUTBYyc7kgtESHc3GR1fYbtUBpkJlU36b\numlStvOnK0cuy9srEXqnuz1R9iyHso4s+PrYXI8YLcRd7Ez33yTKZmC9i7iFRFbV\nrwQAw3HpAJoPaSuQ6NbrlinOJZWAbGNfkl3k8q9tAoGAPK4Y/Q6Ej5efJH9zLvC8\nzAthzXQJtRbgWWMW9Djba7OhDRuFRa8CZXtGetSpBj6dw/AzGhMZP62Pm7f4FJWm\n5RfjYST2c5NOPTLcXA1v7FMNY60XOKtkVuNCwymn9Rx4YjM964MC/bxxOxeMncTn\nWS2KJn6Wm18WP757Op1hvkI=\n-----END PRIVATE KEY-----\n",
  "client_email": "novacontateste@appdarlan.iam.gserviceaccount.com",
  "client_id": "110000960584802065616",
  "auth_uri": "https://accounts.google.com/o/oauth2/auth",
  "token_uri": "https://accounts.google.com/o/oauth2/token",
  "auth_provider_x509_cert_url": "https://www.googleapis.com/oauth2/v1/certs",
  "client_x509_cert_url": "https://www.googleapis.com/robot/v1/metadata/x509/novacontateste%40appdarlan.iam.gserviceaccount.com"
}
